{
	"description": "Extract attachments information",
	"processors": [
		{
			"foreach": {
				"field": "attachments",
				"processor": {
					"attachment": {
						"field": "_ingest._value.content",
						"target_field": "_ingest._value.attachment",
						"ignore_missing": true
					}
				}
			}
		}
	]
}
